{
  "page": 2,
  "per_page": 14,
  "photos": [
    {
      "id": 8640350,
      "width": 2112,
      "height": 2560,
      "url": "https://www.pexels.com/photo/white-flowers-under-blue-sky-8640350/",
      "photographer": "Lisa",
      "photographer_url": "https://www.pexels.com/@fotios-photos",
      "photographer_id": 26735,
      "avg_color": "#9EA8B2",
      "src": {
        "original": "https://images.pexels.com/photos/8640350/pexels-photo-8640350.jpeg",
        "large2x": "https://images.pexels.com/photos/8640350/pexels-photo-8640350.jpeg?auto=compress\u0026cs=tinysrgb\u0026dpr=2\u0026h=650\u0026w=940",
        "large": "https://images.pexels.com/photos/8640350/pexels-photo-8640350.jpeg?auto=compress\u0026cs=tinysrgb\u0026h=650\u0026w=940",
        "medium": "https://images.pexels.com/photos/8640350/pexels-photo-8640350.jpeg?auto=compress\u0026cs=tinysrgb\u0026h=350",
        "small": "https://images.pexels.com/photos/8640350/pexels-photo-8640350.jpeg?auto=compress\u0026cs=tinysrgb\u0026h=130",
        "portrait": "https://images.pexels.com/photos/8640350/pexels-photo-8640350.jpeg?auto=compress\u0026cs=tinysrgb\u0026fit=crop\u0026h=1200\u0026w=800",
        "landscape": "https://images.pexels.com/photos/8640350/pexels-photo-8640350.jpeg?auto=compress\u0026cs=tinysrgb\u0026fit=crop\u0026h=627\u0026w=1200",
        "tiny": "https://images.pexels.com/photos/8640350/pexels-photo-8640350.jpeg?auto=compress\u0026cs=tinysrgb\u0026dpr=1\u0026fit=crop\u0026h=200\u0026w=280"
      },
      "liked": false
    },
    {
      "id": 8638988,
      "width": 4016,
      "height": 6016,
      "url": "https://www.pexels.com/photo/woman-in-white-tank-top-8638988/",
      "photographer": "Galina  Yarovaya.",
      "photographer_url": "https://www.pexels.com/@galina-yarovaya-76947234",
      "photographer_id": 76947234,
      "avg_color": "#43423D",
      "src": {
        "original": "https://images.pexels.com/photos/8638988/pexels-photo-8638988.jpeg",
        "large2x": "https://images.pexels.com/photos/8638988/pexels-photo-8638988.jpeg?auto=compress\u0026cs=tinysrgb\u0026dpr=2\u0026h=650\u0026w=940",
        "large": "https://images.pexels.com/photos/8638988/pexels-photo-8638988.jpeg?auto=compress\u0026cs=tinysrgb\u0026h=650\u0026w=940",
        "medium": "https://images.pexels.com/photos/8638988/pexels-photo-8638988.jpeg?auto=compress\u0026cs=tinysrgb\u0026h=350",
        "small": "https://images.pexels.com/photos/8638988/pexels-photo-8638988.jpeg?auto=compress\u0026cs=tinysrgb\u0026h=130",
        "portrait": "https://images.pexels.com/photos/8638988/pexels-photo-8638988.jpeg?auto=compress\u0026cs=tinysrgb\u0026fit=crop\u0026h=1200\u0026w=800",
        "landscape": "https://images.pexels.com/photos/8638988/pexels-photo-8638988.jpeg?auto=compress\u0026cs=tinysrgb\u0026fit=crop\u0026h=627\u0026w=1200",
        "tiny": "https://images.pexels.com/photos/8638988/pexels-photo-8638988.jpeg?auto=compress\u0026cs=tinysrgb\u0026dpr=1\u0026fit=crop\u0026h=200\u0026w=280"
      },
      "liked": false
    },
    {
      "id": 8624764,
      "width": 3840,
      "height": 5760,
      "url": "https://www.pexels.com/photo/black-bicycle-on-gray-concrete-floor-8624764/",
      "photographer": "Yura Forrat",
      "photographer_url": "https://www.pexels.com/@yuraforrat",
      "photographer_id": 76944072,
      "avg_color": "#3B4346",
      "src": {
        "original": "https://images.pexels.com/photos/8624764/pexels-photo-8624764.jpeg",
        "large2x": "https://images.pexels.com/photos/8624764/pexels-photo-8624764.jpeg?auto=compress\u0026cs=tinysrgb\u0026dpr=2\u0026h=650\u0026w=940",
        "large": "https://images.pexels.com/photos/8624764/pexels-photo-8624764.jpeg?auto=compress\u0026cs=tinysrgb\u0026h=650\u0026w=940",
        "medium": "https://images.pexels.com/photos/8624764/pexels-photo-8624764.jpeg?auto=compress\u0026cs=tinysrgb\u0026h=350",
        "small": "https://images.pexels.com/photos/8624764/pexels-photo-8624764.jpeg?auto=compress\u0026cs=tinysrgb\u0026h=130",
        "portrait": "https://images.pexels.com/photos/8624764/pexels-photo-8624764.jpeg?auto=compress\u0026cs=tinysrgb\u0026fit=crop\u0026h=1200\u0026w=800",
        "landscape": "https://images.pexels.com/photos/8624764/pexels-photo-8624764.jpeg?auto=compress\u0026cs=tinysrgb\u0026fit=crop\u0026h=627\u0026w=1200",
        "tiny": "https://images.pexels.com/photos/8624764/pexels-photo-8624764.jpeg?auto=compress\u0026cs=tinysrgb\u0026dpr=1\u0026fit=crop\u0026h=200\u0026w=280"
      },
      "liked": false
    },
    {
      "id": 8624947,
      "width": 3383,
      "height": 5075,
      "url": "https://www.pexels.com/photo/person-holding-silver-diamond-ring-8624947/",
      "photographer": "Yura Forrat",
      "photographer_url": "https://www.pexels.com/@yuraforrat",
      "photographer_id": 76944072,
      "avg_color": "#969497",
      "src": {
        "original": "https://images.pexels.com/photos/8624947/pexels-photo-8624947.jpeg",
        "large2x": "https://images.pexels.com/photos/8624947/pexels-photo-8624947.jpeg?auto=compress\u0026cs=tinysrgb\u0026dpr=2\u0026h=650\u0026w=940",
        "large": "https://images.pexels.com/photos/8624947/pexels-photo-8624947.jpeg?auto=compress\u0026cs=tinysrgb\u0026h=650\u0026w=940",
        "medium": "https://images.pexels.com/photos/8624947/pexels-photo-8624947.jpeg?auto=compress\u0026cs=tinysrgb\u0026h=350",
        "small": "https://images.pexels.com/photos/8624947/pexels-photo-8624947.jpeg?auto=compress\u0026cs=tinysrgb\u0026h=130",
        "portrait": "https://images.pexels.com/photos/8624947/pexels-photo-8624947.jpeg?auto=compress\u0026cs=tinysrgb\u0026fit=crop\u0026h=1200\u0026w=800",
        "landscape": "https://images.pexels.com/photos/8624947/pexels-photo-8624947.jpeg?auto=compress\u0026cs=tinysrgb\u0026fit=crop\u0026h=627\u0026w=1200",
        "tiny": "https://images.pexels.com/photos/8624947/pexels-photo-8624947.jpeg?auto=compress\u0026cs=tinysrgb\u0026dpr=1\u0026fit=crop\u0026h=200\u0026w=280"
      },
      "liked": false
    },
    {
      "id": 8602140,
      "width": 3264,
      "height": 4896,
      "url": "https://www.pexels.com/photo/woman-in-black-spaghetti-strap-top-8602140/",
      "photographer": "Ivan Xolod",
      "photographer_url": "https://www.pexels.com/@ivanxolod",
      "photographer_id": 73724754,
      "avg_color": "#6A6A6A",
      "src": {
        "original": "https://images.pexels.com/photos/8602140/pexels-photo-8602140.jpeg",
        "large2x": "https://images.pexels.com/photos/8602140/pexels-photo-8602140.jpeg?auto=compress\u0026cs=tinysrgb\u0026dpr=2\u0026h=650\u0026w=940",
        "large": "https://images.pexels.com/photos/8602140/pexels-photo-8602140.jpeg?auto=compress\u0026cs=tinysrgb\u0026h=650\u0026w=940",
        "medium": "https://images.pexels.com/photos/8602140/pexels-photo-8602140.jpeg?auto=compress\u0026cs=tinysrgb\u0026h=350",
        "small": "https://images.pexels.com/photos/8602140/pexels-photo-8602140.jpeg?auto=compress\u0026cs=tinysrgb\u0026h=130",
        "portrait": "https://images.pexels.com/photos/8602140/pexels-photo-8602140.jpeg?auto=compress\u0026cs=tinysrgb\u0026fit=crop\u0026h=1200\u0026w=800",
        "landscape": "https://images.pexels.com/photos/8602140/pexels-photo-8602140.jpeg?auto=compress\u0026cs=tinysrgb\u0026fit=crop\u0026h=627\u0026w=1200",
        "tiny": "https://images.pexels.com/photos/8602140/pexels-photo-8602140.jpeg?auto=compress\u0026cs=tinysrgb\u0026dpr=1\u0026fit=crop\u0026h=200\u0026w=280"
      },
      "liked": false
    },
    {
      "id": 8602145,
      "width": 3179,
      "height": 4768,
      "url": "https://www.pexels.com/photo/woman-in-gray-long-sleeve-shirt-and-black-pants-sitting-on-wooden-dock-8602145/",
      "photographer": "Ivan Xolod",
      "photographer_url": "https://www.pexels.com/@ivanxolod",
      "photographer_id": 73724754,
      "avg_color": "#8E8E8E",
      "src": {
        "original": "https://images.pexels.com/photos/8602145/pexels-photo-8602145.jpeg",
        "large2x": "https://images.pexels.com/photos/8602145/pexels-photo-8602145.jpeg?auto=compress\u0026cs=tinysrgb\u0026dpr=2\u0026h=650\u0026w=940",
        "large": "https://images.pexels.com/photos/8602145/pexels-photo-8602145.jpeg?auto=compress\u0026cs=tinysrgb\u0026h=650\u0026w=940",
        "medium": "https://images.pexels.com/photos/8602145/pexels-photo-8602145.jpeg?auto=compress\u0026cs=tinysrgb\u0026h=350",
        "small": "https://images.pexels.com/photos/8602145/pexels-photo-8602145.jpeg?auto=compress\u0026cs=tinysrgb\u0026h=130",
        "portrait": "https://images.pexels.com/photos/8602145/pexels-photo-8602145.jpeg?auto=compress\u0026cs=tinysrgb\u0026fit=crop\u0026h=1200\u0026w=800",
        "landscape": "https://images.pexels.com/photos/8602145/pexels-photo-8602145.jpeg?auto=compress\u0026cs=tinysrgb\u0026fit=crop\u0026h=627\u0026w=1200",
        "tiny": "https://images.pexels.com/photos/8602145/pexels-photo-8602145.jpeg?auto=compress\u0026cs=tinysrgb\u0026dpr=1\u0026fit=crop\u0026h=200\u0026w=280"
      },
      "liked": false
    },
    {
      "id": 8602180,
      "width": 3053,
      "height": 4580,
      "url": "https://www.pexels.com/photo/landscape-fashion-beach-people-8602180/",
      "photographer": "Ivan Xolod",
      "photographer_url": "https://www.pexels.com/@ivanxolod",
      "photographer_id": 73724754,
      "avg_color": "#565251",
      "src": {
        "original": "https://images.pexels.com/photos/8602180/pexels-photo-8602180.jpeg",
        "large2x": "https://images.pexels.com/photos/8602180/pexels-photo-8602180.jpeg?auto=compress\u0026cs=tinysrgb\u0026dpr=2\u0026h=650\u0026w=940",
        "large": "https://images.pexels.com/photos/8602180/pexels-photo-8602180.jpeg?auto=compress\u0026cs=tinysrgb\u0026h=650\u0026w=940",
        "medium": "https://images.pexels.com/photos/8602180/pexels-photo-8602180.jpeg?auto=compress\u0026cs=tinysrgb\u0026h=350",
        "small": "https://images.pexels.com/photos/8602180/pexels-photo-8602180.jpeg?auto=compress\u0026cs=tinysrgb\u0026h=130",
        "portrait": "https://images.pexels.com/photos/8602180/pexels-photo-8602180.jpeg?auto=compress\u0026cs=tinysrgb\u0026fit=crop\u0026h=1200\u0026w=800",
        "landscape": "https://images.pexels.com/photos/8602180/pexels-photo-8602180.jpeg?auto=compress\u0026cs=tinysrgb\u0026fit=crop\u0026h=627\u0026w=1200",
        "tiny": "https://images.pexels.com/photos/8602180/pexels-photo-8602180.jpeg?auto=compress\u0026cs=tinysrgb\u0026dpr=1\u0026fit=crop\u0026h=200\u0026w=280"
      },
      "liked": false
    },
    {
      "id": 8602185,
      "width": 2870,
      "height": 4305,
      "url": "https://www.pexels.com/photo/grayscale-photo-of-woman-lying-on-wooden-fence-8602185/",
      "photographer": "Ivan Xolod",
      "photographer_url": "https://www.pexels.com/@ivanxolod",
      "photographer_id": 73724754,
      "avg_color": "#4A4A4A",
      "src": {
        "original": "https://images.pexels.com/photos/8602185/pexels-photo-8602185.jpeg",
        "large2x": "https://images.pexels.com/photos/8602185/pexels-photo-8602185.jpeg?auto=compress\u0026cs=tinysrgb\u0026dpr=2\u0026h=650\u0026w=940",
        "large": "https://images.pexels.com/photos/8602185/pexels-photo-8602185.jpeg?auto=compress\u0026cs=tinysrgb\u0026h=650\u0026w=940",
        "medium": "https://images.pexels.com/photos/8602185/pexels-photo-8602185.jpeg?auto=compress\u0026cs=tinysrgb\u0026h=350",
        "small": "https://images.pexels.com/photos/8602185/pexels-photo-8602185.jpeg?auto=compress\u0026cs=tinysrgb\u0026h=130",
        "portrait": "https://images.pexels.com/photos/8602185/pexels-photo-8602185.jpeg?auto=compress\u0026cs=tinysrgb\u0026fit=crop\u0026h=1200\u0026w=800",
        "landscape": "https://images.pexels.com/photos/8602185/pexels-photo-8602185.jpeg?auto=compress\u0026cs=tinysrgb\u0026fit=crop\u0026h=627\u0026w=1200",
        "tiny": "https://images.pexels.com/photos/8602185/pexels-photo-8602185.jpeg?auto=compress\u0026cs=tinysrgb\u0026dpr=1\u0026fit=crop\u0026h=200\u0026w=280"
      },
      "liked": false
    },
    {
      "id": 8608881,
      "width": 4480,
      "height": 5967,
      "url": "https://www.pexels.com/photo/sunny-field-summer-sun-8608881/",
      "photographer": "Anastasia Pavlova",
      "photographer_url": "https://www.pexels.com/@asyapavlova",
      "photographer_id": 62196926,
      "avg_color": "#C9D5E1",
      "src": {
        "original": "https://images.pexels.com/photos/8608881/pexels-photo-8608881.jpeg",
        "large2x": "https://images.pexels.com/photos/8608881/pexels-photo-8608881.jpeg?auto=compress\u0026cs=tinysrgb\u0026dpr=2\u0026h=650\u0026w=940",
        "large": "https://images.pexels.com/photos/8608881/pexels-photo-8608881.jpeg?auto=compress\u0026cs=tinysrgb\u0026h=650\u0026w=940",
        "medium": "https://images.pexels.com/photos/8608881/pexels-photo-8608881.jpeg?auto=compress\u0026cs=tinysrgb\u0026h=350",
        "small": "https://images.pexels.com/photos/8608881/pexels-photo-8608881.jpeg?auto=compress\u0026cs=tinysrgb\u0026h=130",
        "portrait": "https://images.pexels.com/photos/8608881/pexels-photo-8608881.jpeg?auto=compress\u0026cs=tinysrgb\u0026fit=crop\u0026h=1200\u0026w=800",
        "landscape": "https://images.pexels.com/photos/8608881/pexels-photo-8608881.jpeg?auto=compress\u0026cs=tinysrgb\u0026fit=crop\u0026h=627\u0026w=1200",
        "tiny": "https://images.pexels.com/photos/8608881/pexels-photo-8608881.jpeg?auto=compress\u0026cs=tinysrgb\u0026dpr=1\u0026fit=crop\u0026h=200\u0026w=280"
      },
      "liked": false
    },
    {
      "id": 8602183,
      "width": 3264,
      "height": 4896,
      "url": "https://www.pexels.com/photo/sea-man-beach-people-8602183/",
      "photographer": "Ivan Xolod",
      "photographer_url": "https://www.pexels.com/@ivanxolod",
      "photographer_id": 73724754,
      "avg_color": "#8A8A8A",
      "src": {
        "original": "https://images.pexels.com/photos/8602183/pexels-photo-8602183.jpeg",
        "large2x": "https://images.pexels.com/photos/8602183/pexels-photo-8602183.jpeg?auto=compress\u0026cs=tinysrgb\u0026dpr=2\u0026h=650\u0026w=940",
        "large": "https://images.pexels.com/photos/8602183/pexels-photo-8602183.jpeg?auto=compress\u0026cs=tinysrgb\u0026h=650\u0026w=940",
        "medium": "https://images.pexels.com/photos/8602183/pexels-photo-8602183.jpeg?auto=compress\u0026cs=tinysrgb\u0026h=350",
        "small": "https://images.pexels.com/photos/8602183/pexels-photo-8602183.jpeg?auto=compress\u0026cs=tinysrgb\u0026h=130",
        "portrait": "https://images.pexels.com/photos/8602183/pexels-photo-8602183.jpeg?auto=compress\u0026cs=tinysrgb\u0026fit=crop\u0026h=1200\u0026w=800",
        "landscape": "https://images.pexels.com/photos/8602183/pexels-photo-8602183.jpeg?auto=compress\u0026cs=tinysrgb\u0026fit=crop\u0026h=627\u0026w=1200",
        "tiny": "https://images.pexels.com/photos/8602183/pexels-photo-8602183.jpeg?auto=compress\u0026cs=tinysrgb\u0026dpr=1\u0026fit=crop\u0026h=200\u0026w=280"
      },
      "liked": false
    },
    {
      "id": 8585444,
      "width": 2923,
      "height": 3897,
      "url": "https://www.pexels.com/photo/sunset-man-beach-people-8585444/",
      "photographer": "Ivan Xolod",
      "photographer_url": "https://www.pexels.com/@ivanxolod",
      "photographer_id": 73724754,
      "avg_color": "#446576",
      "src": {
        "original": "https://images.pexels.com/photos/8585444/pexels-photo-8585444.jpeg",
        "large2x": "https://images.pexels.com/photos/8585444/pexels-photo-8585444.jpeg?auto=compress\u0026cs=tinysrgb\u0026dpr=2\u0026h=650\u0026w=940",
        "large": "https://images.pexels.com/photos/8585444/pexels-photo-8585444.jpeg?auto=compress\u0026cs=tinysrgb\u0026h=650\u0026w=940",
        "medium": "https://images.pexels.com/photos/8585444/pexels-photo-8585444.jpeg?auto=compress\u0026cs=tinysrgb\u0026h=350",
        "small": "https://images.pexels.com/photos/8585444/pexels-photo-8585444.jpeg?auto=compress\u0026cs=tinysrgb\u0026h=130",
        "portrait": "https://images.pexels.com/photos/8585444/pexels-photo-8585444.jpeg?auto=compress\u0026cs=tinysrgb\u0026fit=crop\u0026h=1200\u0026w=800",
        "landscape": "https://images.pexels.com/photos/8585444/pexels-photo-8585444.jpeg?auto=compress\u0026cs=tinysrgb\u0026fit=crop\u0026h=627\u0026w=1200",
        "tiny": "https://images.pexels.com/photos/8585444/pexels-photo-8585444.jpeg?auto=compress\u0026cs=tinysrgb\u0026dpr=1\u0026fit=crop\u0026h=200\u0026w=280"
      },
      "liked": false
    },
    {
      "id": 8579688,
      "width": 3456,
      "height": 5184,
      "url": "https://www.pexels.com/photo/green-and-red-flower-plants-8579688/",
      "photographer": "Elena Koloskova",
      "photographer_url": "https://www.pexels.com/@elena-koloskova-75706594",
      "photographer_id": 75706594,
      "avg_color": "#282D31",
      "src": {
        "original": "https://images.pexels.com/photos/8579688/pexels-photo-8579688.jpeg",
        "large2x": "https://images.pexels.com/photos/8579688/pexels-photo-8579688.jpeg?auto=compress\u0026cs=tinysrgb\u0026dpr=2\u0026h=650\u0026w=940",
        "large": "https://images.pexels.com/photos/8579688/pexels-photo-8579688.jpeg?auto=compress\u0026cs=tinysrgb\u0026h=650\u0026w=940",
        "medium": "https://images.pexels.com/photos/8579688/pexels-photo-8579688.jpeg?auto=compress\u0026cs=tinysrgb\u0026h=350",
        "small": "https://images.pexels.com/photos/8579688/pexels-photo-8579688.jpeg?auto=compress\u0026cs=tinysrgb\u0026h=130",
        "portrait": "https://images.pexels.com/photos/8579688/pexels-photo-8579688.jpeg?auto=compress\u0026cs=tinysrgb\u0026fit=crop\u0026h=1200\u0026w=800",
        "landscape": "https://images.pexels.com/photos/8579688/pexels-photo-8579688.jpeg?auto=compress\u0026cs=tinysrgb\u0026fit=crop\u0026h=627\u0026w=1200",
        "tiny": "https://images.pexels.com/photos/8579688/pexels-photo-8579688.jpeg?auto=compress\u0026cs=tinysrgb\u0026dpr=1\u0026fit=crop\u0026h=200\u0026w=280"
      },
      "liked": false
    },
    {
      "id": 8579819,
      "width": 3456,
      "height": 5184,
      "url": "https://www.pexels.com/photo/person-holding-white-candle-lantern-8579819/",
      "photographer": "Elena Koloskova",
      "photographer_url": "https://www.pexels.com/@elena-koloskova-75706594",
      "photographer_id": 75706594,
      "avg_color": "#393939",
      "src": {
        "original": "https://images.pexels.com/photos/8579819/pexels-photo-8579819.jpeg",
        "large2x": "https://images.pexels.com/photos/8579819/pexels-photo-8579819.jpeg?auto=compress\u0026cs=tinysrgb\u0026dpr=2\u0026h=650\u0026w=940",
        "large": "https://images.pexels.com/photos/8579819/pexels-photo-8579819.jpeg?auto=compress\u0026cs=tinysrgb\u0026h=650\u0026w=940",
        "medium": "https://images.pexels.com/photos/8579819/pexels-photo-8579819.jpeg?auto=compress\u0026cs=tinysrgb\u0026h=350",
        "small": "https://images.pexels.com/photos/8579819/pexels-photo-8579819.jpeg?auto=compress\u0026cs=tinysrgb\u0026h=130",
        "portrait": "https://images.pexels.com/photos/8579819/pexels-photo-8579819.jpeg?auto=compress\u0026cs=tinysrgb\u0026fit=crop\u0026h=1200\u0026w=800",
        "landscape": "https://images.pexels.com/photos/8579819/pexels-photo-8579819.jpeg?auto=compress\u0026cs=tinysrgb\u0026fit=crop\u0026h=627\u0026w=1200",
        "tiny": "https://images.pexels.com/photos/8579819/pexels-photo-8579819.jpeg?auto=compress\u0026cs=tinysrgb\u0026dpr=1\u0026fit=crop\u0026h=200\u0026w=280"
      },
      "liked": false
    },
    {
      "id": 8580325,
      "width": 3456,
      "height": 5184,
      "url": "https://www.pexels.com/photo/brown-wooden-frame-with-light-8580325/",
      "photographer": "Elena Koloskova",
      "photographer_url": "https://www.pexels.com/@elena-koloskova-75706594",
      "photographer_id": 75706594,
      "avg_color": "#1B1C1E",
      "src": {
        "original": "https://images.pexels.com/photos/8580325/pexels-photo-8580325.jpeg",
        "large2x": "https://images.pexels.com/photos/8580325/pexels-photo-8580325.jpeg?auto=compress\u0026cs=tinysrgb\u0026dpr=2\u0026h=650\u0026w=940",
        "large": "https://images.pexels.com/photos/8580325/pexels-photo-8580325.jpeg?auto=compress\u0026cs=tinysrgb\u0026h=650\u0026w=940",
        "medium": "https://images.pexels.com/photos/8580325/pexels-photo-8580325.jpeg?auto=compress\u0026cs=tinysrgb\u0026h=350",
        "small": "https://images.pexels.com/photos/8580325/pexels-photo-8580325.jpeg?auto=compress\u0026cs=tinysrgb\u0026h=130",
        "portrait": "https://images.pexels.com/photos/8580325/pexels-photo-8580325.jpeg?auto=compress\u0026cs=tinysrgb\u0026fit=crop\u0026h=1200\u0026w=800",
        "landscape": "https://images.pexels.com/photos/8580325/pexels-photo-8580325.jpeg?auto=compress\u0026cs=tinysrgb\u0026fit=crop\u0026h=627\u0026w=1200",
        "tiny": "https://images.pexels.com/photos/8580325/pexels-photo-8580325.jpeg?auto=compress\u0026cs=tinysrgb\u0026dpr=1\u0026fit=crop\u0026h=200\u0026w=280"
      },
      "liked": false
    }
  ],
  "total_results": 8000,
  "next_page": "https://api.pexels.com/v1/curated/?page=3\u0026per_page=14",
  "prev_page": "https://api.pexels.com/v1/curated/?page=1\u0026per_page=14"
}
